
{
	"code": 0,
	"data": {
		"cinemas": [{
			"addr": "白云区丛云路945号嘉福商业广场三楼",
			"cellShows": [],
			"cityId": 20,
			"dis": 476.6009409457378,
			"distance": "0.5km",
			"follow": 0,
			"id": 25300,
			"labels": [{
				"color": "#579daf",
				"name": "退",
				"url": ""
			}, {
				"color": "#579daf",
				"name": "改签",
				"url": ""
			}, {
				"color": "#ff9900",
				"name": "小吃",
				"url": ""
			}],
			"lat": 23.220245,
			"lng": 113.303055,
			"mark": 0,
			"nm": "中影天川国际影城（永泰店）",
			"poiId": 173256481,
			"price": 19.9,
			"promotion": {
				"cardPromotionTag": "",
				"couponPromotionTag": "",
				"merchantActivityTag": "",
				"packShowActivityTag": "",
				"platformActivityTag": "追虎擒龙特惠",
				"starActivityTag": ""
			},
			"referencePrice": "0",
			"score": 600.0,
			"sellPrice": "19.9",
			"shopId": 106266961,
			"showTimes": "",
			"tag": {
				"allowRefund": 1,
				"buyout": 0,
				"cityCardTag": 0,
				"deal": 0,
				"endorse": 1,
				"giftTag": "",
				"hallType": [],
				"hallTypeVOList": [],
				"sell": 1,
				"snack": 1,
				"vipTag": ""
			}
		}, {
			"addr": "白云区永平街永康路45-53号宝湾广场5楼",
			"cellShows": [],
			"cityId": 20,
			"dis": 641.2756926440431,
			"distance": "0.6km",
			"follow": 0,
			"id": 26255,
			"labels": [{
				"color": "#579daf",
				"name": "退",
				"url": ""
			}, {
				"color": "#579daf",
				"name": "改签",
				"url": ""
			}, {
				"color": "#ff9900",
				"name": "小吃",
				"url": ""
			}, {
				"color": "#579daf",
				"name": "杜比全景声厅",
				"url": ""
			}],
			"lat": 23.22222,
			"lng": 113.304016,
			"mark": 0,
			"nm": "中影凤凰影城（永泰店）",
			"poiId": 189835000,
			"price": 19.9,
			"promotion": {
				"cardPromotionTag": "",
				"couponPromotionTag": "",
				"merchantActivityTag": "",
				"packShowActivityTag": "",
				"platformActivityTag": "悬崖之上等4部影片特惠",
				"starActivityTag": ""
			},
			"referencePrice": "0",
			"score": 600.0,
			"sellPrice": "19.9",
			"shopId": 127094426,
			"showTimes": "",
			"tag": {
				"allowRefund": 1,
				"buyout": 0,
				"cityCardTag": 0,
				"deal": 0,
				"endorse": 1,
				"giftTag": "",
				"hallType": ["杜比全景声厅"],
				"hallTypeVOList": [{
					"name": "杜比全景声厅",
					"url": ""
				}],
				"sell": 1,
				"snack": 1,
				"vipTag": ""
			}
		}, {
			"addr": "白云区白云大道北880号安华汇A馆6楼",
			"cellShows": [],
			"cityId": 20,
			"dis": 913.271923813748,
			"distance": "0.9km",
			"follow": 0,
			"id": 26000,
			"labels": [{
				"color": "#579daf",
				"name": "退",
				"url": ""
			}, {
				"color": "#579daf",
				"name": "改签",
				"url": ""
			}],
			"lat": 23.216743,
			"lng": 113.296616,
			"mark": 0,
			"nm": "嘉莱影乐汇（白云安华汇店）",
			"poiId": 179516974,
			"price": 19.9,
			"promotion": {
				"cardPromotionTag": "",
				"couponPromotionTag": "",
				"merchantActivityTag": "",
				"packShowActivityTag": "",
				"platformActivityTag": "追虎擒龙等4部影片特惠",
				"starActivityTag": ""
			},
			"referencePrice": "0",
			"score": 600.0,
			"sellPrice": "19.9",
			"shopId": 112098014,
			"showTimes": "",
			"tag": {
				"allowRefund": 1,
				"buyout": 0,
				"cityCardTag": 0,
				"deal": 0,
				"endorse": 1,
				"giftTag": "",
				"hallType": [],
				"hallTypeVOList": [],
				"sell": 1,
				"snack": 0,
				"vipTag": ""
			}
		}, {
			"addr": "白云区尚景街1号白云尚城文化活动中心",
			"cellShows": [],
			"cityId": 20,
			"dis": 2117.487267786354,
			"distance": "2.1km",
			"follow": 0,
			"id": 13509,
			"labels": [{
				"color": "#579daf",
				"name": "退",
				"url": ""
			}, {
				"color": "#579daf",
				"name": "改签",
				"url": ""
			}, {
				"color": "#ff9900",
				"name": "小吃",
				"url": ""
			}, {
				"color": "#579daf",
				"name": "杜比全景声厅",
				"url": ""
			}],
			"lat": 23.215399,
			"lng": 113.28487,
			"mark": 0,
			"nm": "IDC国际影城（白云尚城杜比全景声店）",
			"poiId": 50364027,
			"price": 19.9,
			"promotion": {
				"cardPromotionTag": "",
				"couponPromotionTag": "",
				"merchantActivityTag": "",
				"packShowActivityTag": "",
				"platformActivityTag": "追虎擒龙等5部影片特惠",
				"starActivityTag": ""
			},
			"referencePrice": "0",
			"score": 745.76276,
			"sellPrice": "19.9",
			"shopId": 23326904,
			"showTimes": "",
			"tag": {
				"allowRefund": 1,
				"buyout": 0,
				"cityCardTag": 0,
				"deal": 0,
				"endorse": 1,
				"giftTag": "",
				"hallType": ["杜比全景声厅"],
				"hallTypeVOList": [{
					"name": "杜比全景声厅",
					"url": ""
				}],
				"sell": 1,
				"snack": 1,
				"vipTag": ""
			}
		}, {
			"addr": "白云区空港大道88号嘉大广场C塔美食城6层",
			"cellShows": [],
			"cityId": 20,
			"dis": 2296.4560621210253,
			"distance": "2.3km",
			"follow": 0,
			"id": 27627,
			"labels": [{
				"color": "#579daf",
				"name": "改签",
				"url": ""
			}, {
				"color": "#579daf",
				"name": "杜比全景声厅",
				"url": ""
			}, {
				"color": "#579daf",
				"name": "DTS:X 临境音厅",
				"url": ""
			}],
			"lat": 23.232035,
			"lng": 113.29057,
			"mark": 0,
			"nm": "任我行激光巨幕影城（嘉大广场店）",
			"poiId": 1310947690,
			"price": 19.9,
			"promotion": {
				"cardPromotionTag": "",
				"couponPromotionTag": "",
				"merchantActivityTag": "",
				"packShowActivityTag": "",
				"platformActivityTag": "追虎擒龙等2部影片特惠",
				"starActivityTag": ""
			},
			"referencePrice": "0",
			"score": 600.0,
			"sellPrice": "19.9",
			"shopId": 1310947690,
			"showTimes": "",
			"tag": {
				"allowRefund": 0,
				"buyout": 0,
				"cityCardTag": 0,
				"deal": 0,
				"endorse": 1,
				"giftTag": "",
				"hallType": ["杜比全景声厅", "DTS:X 临境音厅"],
				"hallTypeVOList": [{
					"name": "杜比全景声厅",
					"url": ""
				}, {
					"name": "DTS:X 临境音厅",
					"url": ""
				}],
				"sell": 1,
				"snack": 0,
				"vipTag": ""
			}
		}, {
			"addr": "白云区黄石街江夏新天地广场5层（地铁2号线B出口对面）",
			"cellShows": [],
			"cityId": 20,
			"dis": 2505.2995586383263,
			"distance": "2.5km",
			"follow": 0,
			"id": 24002,
			"labels": [{
				"color": "#579daf",
				"name": "改签",
				"url": ""
			}, {
				"color": "#ff9900",
				"name": "小吃",
				"url": ""
			}, {
				"color": "#579daf",
				"name": "巨幕厅",
				"url": ""
			}],
			"lat": 23.211065,
			"lng": 113.281784,
			"mark": 0,
			"nm": "佳映国际影城（江夏店）",
			"poiId": 161835111,
			"price": 19.9,
			"promotion": {
				"cardPromotionTag": "",
				"couponPromotionTag": "",
				"merchantActivityTag": "",
				"packShowActivityTag": "",
				"platformActivityTag": "悬崖之上等4部影片特惠",
				"starActivityTag": ""
			},
			"referencePrice": "0",
			"score": 600.0,
			"sellPrice": "19.9",
			"shopId": 95041129,
			"showTimes": "",
			"tag": {
				"allowRefund": 0,
				"buyout": 0,
				"cityCardTag": 0,
				"deal": 0,
				"endorse": 1,
				"giftTag": "",
				"hallType": ["巨幕厅"],
				"hallTypeVOList": [{
					"name": "巨幕厅",
					"url": ""
				}],
				"sell": 1,
				"snack": 1,
				"vipTag": ""
			}
		}, {
			"addr": "白云区百顺北路1号新世界云门Newpark3楼（地铁嘉禾望岗A出口）",
			"cellShows": [],
			"cityId": 20,
			"dis": 2512.1722669932797,
			"distance": "2.5km",
			"follow": 0,
			"id": 26972,
			"labels": [{
				"color": "#579daf",
				"name": "改签",
				"url": ""
			}, {
				"color": "#579daf",
				"name": "IMAX厅",
				"url": ""
			}, {
				"color": "#579daf",
				"name": "杜比全景声厅",
				"url": ""
			}],
			"lat": 23.235743,
			"lng": 113.29243,
			"mark": 0,
			"nm": "美亚IMAX激光影城（云门店）",
			"poiId": 191857528,
			"price": 19.9,
			"promotion": {
				"cardPromotionTag": "",
				"couponPromotionTag": "",
				"merchantActivityTag": "",
				"packShowActivityTag": "",
				"platformActivityTag": "悬崖之上等5部影片特惠",
				"starActivityTag": ""
			},
			"referencePrice": "0",
			"score": 600.0,
			"sellPrice": "19.9",
			"shopId": 129045416,
			"showTimes": "",
			"tag": {
				"allowRefund": 0,
				"buyout": 0,
				"cityCardTag": 0,
				"deal": 0,
				"endorse": 1,
				"giftTag": "",
				"hallType": ["IMAX厅", "杜比全景声厅"],
				"hallTypeVOList": [{
					"name": "IMAX厅",
					"url": ""
				}, {
					"name": "杜比全景声厅",
					"url": ""
				}],
				"sell": 1,
				"snack": 0,
				"vipTag": ""
			}
		}, {
			"addr": "白云区广州大道北同和街1号金铂广场4楼",
			"cellShows": [],
			"cityId": 20,
			"dis": 3057.7849504345636,
			"distance": "3.1km",
			"follow": 0,
			"id": 14695,
			"labels": [{
				"color": "#579daf",
				"name": "退",
				"url": ""
			}, {
				"color": "#579daf",
				"name": "改签",
				"url": ""
			}, {
				"color": "#ff9900",
				"name": "小吃",
				"url": ""
			}, {
				"color": "#579daf",
				"name": "4K厅",
				"url": ""
			}],
			"lat": 23.196184,
			"lng": 113.3256,
			"mark": 0,
			"nm": "中影凤凰影城（同和店）",
			"poiId": 93460181,
			"price": 19.9,
			"promotion": {
				"cardPromotionTag": "",
				"couponPromotionTag": "",
				"merchantActivityTag": "",
				"packShowActivityTag": "",
				"platformActivityTag": "悬崖之上等4部影片特惠",
				"starActivityTag": ""
			},
			"referencePrice": "0",
			"score": 473.0769,
			"sellPrice": "19.9",
			"shopId": 57616829,
			"showTimes": "",
			"tag": {
				"allowRefund": 1,
				"buyout": 0,
				"cityCardTag": 0,
				"deal": 0,
				"endorse": 1,
				"giftTag": "",
				"hallType": ["4K厅"],
				"hallTypeVOList": [{
					"name": "4K厅",
					"url": ""
				}],
				"sell": 1,
				"snack": 1,
				"vipTag": ""
			}
		}, {
			"addr": "白云区鹤龙街彭西大街嘉汇广场3楼",
			"cellShows": [],
			"cityId": 20,
			"dis": 3414.9782757845655,
			"distance": "3.4km",
			"follow": 0,
			"id": 16158,
			"labels": [{
				"color": "#579daf",
				"name": "退",
				"url": ""
			}, {
				"color": "#579daf",
				"name": "改签",
				"url": ""
			}, {
				"color": "#ff9900",
				"name": "小吃",
				"url": ""
			}],
			"lat": 23.23112,
			"lng": 113.27607,
			"mark": 0,
			"nm": "中影JAJ24小时咖啡影院（嘉汇广场店）",
			"poiId": 101114919,
			"price": 19.9,
			"promotion": {
				"cardPromotionTag": "",
				"couponPromotionTag": "",
				"merchantActivityTag": "",
				"packShowActivityTag": "",
				"platformActivityTag": "追虎擒龙等3部影片特惠",
				"starActivityTag": ""
			},
			"referencePrice": "0",
			"score": 781.8182,
			"sellPrice": "19.9",
			"shopId": 67795584,
			"showTimes": "",
			"tag": {
				"allowRefund": 1,
				"buyout": 0,
				"cityCardTag": 0,
				"deal": 0,
				"endorse": 1,
				"giftTag": "",
				"hallType": [],
				"hallTypeVOList": [],
				"sell": 1,
				"snack": 1,
				"vipTag": ""
			}
		}, {
			"addr": "白云区永平街东平中路5号时代都荟3楼",
			"cellShows": [],
			"cityId": 20,
			"dis": 3511.5389389030656,
			"distance": "3.5km",
			"follow": 0,
			"id": 15088,
			"labels": [{
				"color": "#579daf",
				"name": "改签",
				"url": ""
			}, {
				"color": "#ff9900",
				"name": "小吃",
				"url": ""
			}],
			"lat": 23.248032,
			"lng": 113.30936,
			"mark": 0,
			"nm": "哈艺时尚影城（白云东平店）",
			"poiId": 98982283,
			"price": 13.0,
			"promotion": {
				"cardPromotionTag": "",
				"couponPromotionTag": "",
				"merchantActivityTag": "",
				"packShowActivityTag": "",
				"platformActivityTag": "悬崖之上等4部影片特惠",
				"starActivityTag": ""
			},
			"referencePrice": "0",
			"score": 421.4286,
			"sellPrice": "13",
			"shopId": 58242955,
			"showTimes": "",
			"tag": {
				"allowRefund": 0,
				"buyout": 0,
				"cityCardTag": 0,
				"deal": 0,
				"endorse": 1,
				"giftTag": "",
				"hallType": [],
				"hallTypeVOList": [],
				"sell": 1,
				"snack": 1,
				"vipTag": ""
			}
		}, {
			"addr": "白云区鹤龙二路85号嘉禾金铂天地5楼脉铂影城",
			"cellShows": [],
			"cityId": 20,
			"dis": 3515.5649640244924,
			"distance": "3.5km",
			"follow": 0,
			"id": 36435,
			"labels": [{
				"color": "#579daf",
				"name": "退",
				"url": ""
			}, {
				"color": "#579daf",
				"name": "改签",
				"url": ""
			}, {
				"color": "#579daf",
				"name": "杜比全景声厅",
				"url": ""
			}, {
				"color": "#579daf",
				"name": "4K厅",
				"url": ""
			}, {
				"color": "#579daf",
				"name": "巨幕厅",
				"url": ""
			}],
			"lat": 23.239063,
			"lng": 113.28129,
			"mark": 0,
			"nm": "脉铂影城（嘉禾金铂天地店）",
			"poiId": 1807070998,
			"price": 19.9,
			"promotion": {
				"cardPromotionTag": "",
				"couponPromotionTag": "",
				"merchantActivityTag": "",
				"packShowActivityTag": "",
				"platformActivityTag": "追虎擒龙等2部影片特惠",
				"starActivityTag": ""
			},
			"referencePrice": "0",
			"score": 600.0,
			"sellPrice": "19.9",
			"shopId": 1807070998,
			"showTimes": "",
			"tag": {
				"allowRefund": 1,
				"buyout": 0,
				"cityCardTag": 0,
				"deal": 0,
				"endorse": 1,
				"giftTag": "",
				"hallType": ["杜比全景声厅", "4K厅", "巨幕厅"],
				"hallTypeVOList": [{
					"name": "杜比全景声厅",
					"url": ""
				}, {
					"name": "4K厅",
					"url": ""
				}, {
					"name": "巨幕厅",
					"url": ""
				}],
				"sell": 1,
				"snack": 0,
				"vipTag": ""
			}
		}, {
			"addr": "白云区鹤泰路鹤龙街YH城3楼208号（鹤边,黄边）",
			"cellShows": [],
			"cityId": 20,
			"dis": 3624.307895747712,
			"distance": "3.6km",
			"follow": 0,
			"id": 13500,
			"labels": [{
				"color": "#579daf",
				"name": "退",
				"url": ""
			}, {
				"color": "#579daf",
				"name": "改签",
				"url": ""
			}, {
				"color": "#ff9900",
				"name": "小吃",
				"url": ""
			}],
			"lat": 23.214333,
			"lng": 113.27016,
			"mark": 0,
			"nm": "哈艺时尚影城（白云YH城店）",
			"poiId": 50585808,
			"price": 19.9,
			"promotion": {
				"cardPromotionTag": "",
				"couponPromotionTag": "",
				"merchantActivityTag": "",
				"packShowActivityTag": "",
				"platformActivityTag": "真·三国无双等4部影片特惠",
				"starActivityTag": ""
			},
			"referencePrice": "0",
			"score": 707.69226,
			"sellPrice": "19.9",
			"shopId": 23996844,
			"showTimes": "",
			"tag": {
				"allowRefund": 1,
				"buyout": 0,
				"cityCardTag": 0,
				"deal": 0,
				"endorse": 1,
				"giftTag": "",
				"hallType": [],
				"hallTypeVOList": [],
				"sell": 1,
				"snack": 1,
				"vipTag": ""
			}
		}],
		"ct_pois": [{
			"ct_poi": "936879945111165696_a25300_c0",
			"poiid": 173256481
		}, {
			"ct_poi": "936879945111165696_a26255_c1",
			"poiid": 189835000
		}, {
			"ct_poi": "936879945111165696_a26000_c2",
			"poiid": 179516974
		}, {
			"ct_poi": "936879945111165696_a13509_c3",
			"poiid": 50364027
		}, {
			"ct_poi": "936879945111165696_a27627_c4",
			"poiid": 1310947690
		}, {
			"ct_poi": "936879945111165696_a24002_c5",
			"poiid": 161835111
		}, {
			"ct_poi": "936879945111165696_a26972_c6",
			"poiid": 191857528
		}, {
			"ct_poi": "936879945111165696_a14695_c7",
			"poiid": 93460181
		}, {
			"ct_poi": "936879945111165696_a16158_c8",
			"poiid": 101114919
		}, {
			"ct_poi": "936879945111165696_a15088_c9",
			"poiid": 98982283
		}, {
			"ct_poi": "936879945111165696_a36435_c10",
			"poiid": 1807070998
		}, {
			"ct_poi": "936879945111165696_a13500_c11",
			"poiid": 50585808
		}],
		"paging": {
			"hasMore": true,
			"limit": 12,
			"offset": 0,
			"total": 271
		}
	},
	"errMsg": "",
	"success": true
}
